%YAML 1.1
%TAG !u! tag:unity3d.com,2011:
--- !u!1045 &1
EditorBuildSettings:
  m_ObjectHideFlags: 0
  serializedVersion: 2
  m_Scenes:
  - enabled: 1
    path: Assets/Maple/Scenes/MAPLE.unity
    guid: 306c4c2d6224c3846acdbc918da77b4f
  m_configObjects: {}
